…
``` r
hood_coef <-
  tidy(tf_embed, number = 4) |>
  dplyr::select(-terms, -id) |>
  dplyr::rename(Neighborhood = level) |>
  # Make names smaller
  rename_at(
    vars(contains("emb")),
    funs(gsub("Neighborhood_", "", ., fixed = TRUE))
  )
hood_coef
```

    ## # A tibble: 30 × 6
    ##      embed_1 embed_2  embed_3  embed_4  embed_5 Neighborhood      
    ##        <dbl>   <dbl>    <dbl>    <dbl>    <dbl> <chr>             
    ##  1 -0.000271  0.0297  0.0229   0.0404  -0.0389  ..new             
    ##  2 -0.0134   -0.0109 -0.0260  -0.0564   0.0349  North_Ames        
    ##  3 -0.0516   -0.0682  0.0148  -0.00803 -0.0263  College_Creek     
    ##  4  0.00908   0.0317  0.0412  -0.00304  0.0802  Old_Town          
    ##  5 -0.0165    0.0490 -0.00373  0.0107   0.0488  Edwards           
    ##  6 -0.0722   -0.0990  0.0399  -0.0410  -0.0598  Somerset          
    ##  7 -0.0492   -0.0873  0.0391  -0.0116  -0.137   Northridge_Heights
    ##  8 -0.00316  -0.0429 -0.0325   0.0158  -0.00834 Gilbert           
    ##  9 -0.0493   -0.0166 -0.0277  -0.00687  0.0420  Sawyer            
    ## 10 -0.0383   -0.0103  0.00550 -0.00799  0.00939 Northwest_Ames    
    ## # ℹ 20 more rows

``` r
hood_coef <-
  hood_coef |>
  inner_join(means, by = "Neighborhood")
hood_coef
```

    ## # A tibble: 28 × 10
    ##     embed_1 embed_2  embed_3   embed_4   embed_5 Neighborhood   mean     n   lon
    ##       <dbl>   <dbl>    <dbl>     <dbl>     <dbl> <chr>         <dbl> <int> <dbl>
    ##  1 -0.0134  -0.0109 -0.0260  -0.0564    0.0349   North_Ames     5.15   443 -93.6
    ##  2 -0.0516  -0.0682  0.0148  -0.00803  -0.0263   College_Creek  5.29   267 -93.7
    ##  3  0.00908  0.0317  0.0412  -0.00304   0.0802   Old_Town       5.07   239 -93.6
    ##  4 -0.0165   0.0490 -0.00373  0.0107    0.0488   Edwards        5.09   194 -93.7
    ##  5 -0.0722  -0.0990  0.0399  -0.0410   -0.0598   Somerset       5.35   182 -93.6
    ##  6 -0.0492  -0.0873  0.0391  -0.0116   -0.137    Northridge_H…  5.49   166 -93.7
    ##  7 -0.00316 -0.0429 -0.0325   0.0158   -0.00834  Gilbert        5.27   165 -93.6
    ##  8 -0.0493  -0.0166 -0.0277  -0.00687   0.0420   Sawyer         5.13   151 -93.7
    ##  9 -0.0383  -0.0103  0.00550 -0.00799   0.00939  Northwest_Am…  5.27   131 -93.6
    ## 10 -0.0119  -0.0402 -0.00825 -0.000506 -0.000306 Sawyer_West    5.25   125 -93.7
    ## # ℹ 18 more rows
    ## # ℹ 1 more variable: lat <dbl>
…
