Entity Embeddings of Categorical Variables using TensorFlow • embedmit
…
The embeddings are obtained using the tidy method:

hood_coef <-
  tidy(tf_embed, number = 4) |>
  dplyr::select(-terms, -id) |>
  dplyr::rename(Neighborhood = level) |>
  # Make names smaller
  rename_at(
    vars(contains("emb")),
    funs(gsub("Neighborhood_", "", ., fixed = TRUE))
  )
hood_coef

## # A tibble: 30 × 6
##      embed_1  embed_2  embed_3   embed_4  embed_5 Neighborhood      
##        <dbl>    <dbl>    <dbl>     <dbl>    <dbl> <chr>             
##  1 -0.0438    0.0363   0.0428  -0.0427    0.0455  ..new             
##  2 -0.0434    0.0486   0.0563  -0.0336    0.00307 North_Ames        
##  3  0.00590  -0.0732   0.0235   0.0361   -0.0701  College_Creek     
##  4 -0.000826  0.0809  -0.0260  -0.0151    0.0529  Old_Town          
##  5  0.0232    0.0586   0.0175   0.00755   0.0286  Edwards           
##  6 -0.0211   -0.0765   0.00157 -0.0886   -0.0639  Somerset          
##  7 -0.0404   -0.129    0.00275 -0.0777   -0.0982  Northridge_Heights
##  8 -0.0119   -0.0175   0.00935 -0.000302 -0.0213  Gilbert           
##  9 -0.00968  -0.00247  0.0515  -0.0492    0.0290  Sawyer            
## 10 -0.0497   -0.00300 -0.0332  -0.0476    0.0186  Northwest_Ames    
## # ℹ 20 more rows

hood_coef <-
  hood_coef |>
  inner_join(means, by = "Neighborhood")
hood_coef

## # A tibble: 28 × 10
##      embed_1   embed_2  embed_3  embed_4  embed_5 Neighborhood  mean     n   lon
##        <dbl>     <dbl>    <dbl>    <dbl>    <dbl> <chr>        <dbl> <int> <dbl>
##  1 -0.0434    0.0486    0.0563  -3.36e-2  0.00307 North_Ames    5.15   443 -93.6
##  2  0.00590  -0.0732    0.0235   3.61e-2 -0.0701  College_Cre…  5.29   267 -93.7
##  3 -0.000826  0.0809   -0.0260  -1.51e-2  0.0529  Old_Town      5.07   239 -93.6
##  4  0.0232    0.0586    0.0175   7.55e-3  0.0286  Edwards       5.09   194 -93.7
##  5 -0.0211   -0.0765    0.00157 -8.86e-2 -0.0639  Somerset      5.35   182 -93.6
##  6 -0.0404   -0.129     0.00275 -7.77e-2 -0.0982  Northridge_…  5.49   166 -93.7
##  7 -0.0119   -0.0175    0.00935 -3.02e-4 -0.0213  Gilbert       5.27   165 -93.6
##  8 -0.00968  -0.00247   0.0515  -4.92e-2  0.0290  Sawyer        5.13   151 -93.7
##  9 -0.0497   -0.00300  -0.0332  -4.76e-2  0.0186  Northwest_A…  5.27   131 -93.6
## 10 -0.00421   0.000322 -0.00907  1.22e-2 -0.0359  Sawyer_West   5.25   125 -93.7
## # ℹ 18 more rows
## # ℹ 1 more variable: lat <dbl>
…
