Encoding Categorical Data with embedmit • embedmit
…
# Prepare the recipe and examine the encodings
glm_prep <- prep(ames_glm)
glm_estimates <- tidy(glm_prep, number = 2)

glm_estimates %>%
  arrange(desc(value)) %>%
  print(n = 15)
#> # A tibble: 29 × 4
#>    level                 value terms        id               
#>    <chr>                 <dbl> <chr>        <chr>            
#>  1 Stone_Brook         334526. Neighborhood lencode_glm_yj20u
#>  2 Northridge          331721. Neighborhood lencode_glm_yj20u
#>  3 Northridge_Heights  321119. Neighborhood lencode_glm_yj20u
#>  4 Green_Hills         280000  Neighborhood lencode_glm_yj20u
#>  5 Veenker             250878. Neighborhood lencode_glm_yj20u
#>  6 Timberland          247627. Neighborhood lencode_glm_yj20u
#>  7 Somerset            232310. Neighborhood lencode_glm_yj20u
#>  8 Clear_Creek         211551. Neighborhood lencode_glm_yj20u
#>  9 Crawford            205434. Neighborhood lencode_glm_yj20u
#> 10 College_Creek       202763. Neighborhood lencode_glm_yj20u
#> 11 Bloomington_Heights 197888. Neighborhood lencode_glm_yj20u
#> 12 Gilbert             191159. Neighborhood lencode_glm_yj20u
#> 13 Greens              190643. Neighborhood lencode_glm_yj20u
#> 14 Northwest_Ames      188726. Neighborhood lencode_glm_yj20u
#> 15 ..new               183150. Neighborhood lencode_glm_yj20u
#> # ℹ 14 more rows
…
mixed_prep <- prep(ames_mixed)
mixed_estimates <- tidy(mixed_prep, number = 2)

mixed_estimates %>%
  arrange(desc(value)) %>%
  print(n = 15)
#> # A tibble: 29 × 4
#>    level                 value terms        id                 
#>    <chr>                 <dbl> <chr>        <chr>              
#>  1 Stone_Brook         332265. Neighborhood lencode_mixed_AmBz1
#>  2 Northridge          330222. Neighborhood lencode_mixed_AmBz1
#>  3 Northridge_Heights  320533. Neighborhood lencode_mixed_AmBz1
#>  4 Green_Hills         259323. Neighborhood lencode_mixed_AmBz1
#>  5 Veenker             248679. Neighborhood lencode_mixed_AmBz1
#>  6 Timberland          247046. Neighborhood lencode_mixed_AmBz1
#>  7 Somerset            232135. Neighborhood lencode_mixed_AmBz1
#>  8 Clear_Creek         211178. Neighborhood lencode_mixed_AmBz1
#>  9 Crawford            205316. Neighborhood lencode_mixed_AmBz1
#> 10 College_Creek       202724. Neighborhood lencode_mixed_AmBz1
#> 11 Bloomington_Heights 197672. Neighborhood lencode_mixed_AmBz1
#> 12 Gilbert             191145. Neighborhood lencode_mixed_AmBz1
#> 13 Greens              190440. Neighborhood lencode_mixed_AmBz1
#> 14 Northwest_Ames      188722. Neighborhood lencode_mixed_AmBz1
#> 15 ..new               183225. Neighborhood lencode_mixed_AmBz1
#> # ℹ 14 more rows
…
