…
``` r
hood_coef <-
  tidy(tf_embed, number = 4) |>
  dplyr::select(-terms, -id) |>
  dplyr::rename(Neighborhood = level) |>
  # Make names smaller
  rename_at(
    vars(contains("emb")),
    funs(gsub("Neighborhood_", "", ., fixed = TRUE))
  )
hood_coef
```

    ## # A tibble: 30 × 6
    ##     embed_1  embed_2  embed_3 embed_4  embed_5 Neighborhood      
    ##       <dbl>    <dbl>    <dbl>   <dbl>    <dbl> <chr>             
    ##  1  0.0442  -0.0159  -0.0112  -0.0330 -0.00530 ..new             
    ##  2  0.0124  -0.0648   0.0599  -0.0247  0.0208  North_Ames        
    ##  3 -0.0537  -0.0292   0.0562  -0.0369 -0.0461  College_Creek     
    ##  4 -0.0119   0.0268   0.00233 -0.0169  0.102   Old_Town          
    ##  5  0.00905 -0.0356   0.0204   0.0303  0.0728  Edwards           
    ##  6 -0.0768  -0.0270  -0.00651 -0.0636 -0.0837  Somerset          
    ##  7 -0.0798  -0.0589  -0.0579  -0.0220 -0.137   Northridge_Heights
    ##  8 -0.0331  -0.0224   0.00687  0.0581 -0.0173  Gilbert           
    ##  9  0.0228  -0.0362   0.00636 -0.0283  0.0168  Sawyer            
    ## 10  0.0368   0.00293 -0.00763 -0.0254 -0.0184  Northwest_Ames    
    ## # ℹ 20 more rows

``` r
hood_coef <-
  hood_coef |>
  inner_join(means, by = "Neighborhood")
hood_coef
```

    ## # A tibble: 28 × 10
    ##     embed_1  embed_2  embed_3  embed_4 embed_5 Neighborhood     mean     n   lon
    ##       <dbl>    <dbl>    <dbl>    <dbl>   <dbl> <chr>           <dbl> <int> <dbl>
    ##  1  0.0124  -0.0648   0.0599  -0.0247   0.0208 North_Ames       5.15   443 -93.6
    ##  2 -0.0537  -0.0292   0.0562  -0.0369  -0.0461 College_Creek    5.29   267 -93.7
    ##  3 -0.0119   0.0268   0.00233 -0.0169   0.102  Old_Town         5.07   239 -93.6
    ##  4  0.00905 -0.0356   0.0204   0.0303   0.0728 Edwards          5.09   194 -93.7
    ##  5 -0.0768  -0.0270  -0.00651 -0.0636  -0.0837 Somerset         5.35   182 -93.6
    ##  6 -0.0798  -0.0589  -0.0579  -0.0220  -0.137  Northridge_Hei…  5.49   166 -93.7
    ##  7 -0.0331  -0.0224   0.00687  0.0581  -0.0173 Gilbert          5.27   165 -93.6
    ##  8  0.0228  -0.0362   0.00636 -0.0283   0.0168 Sawyer           5.13   151 -93.7
    ##  9  0.0368   0.00293 -0.00763 -0.0254  -0.0184 Northwest_Ames   5.27   131 -93.6
    ## 10 -0.0463   0.0360   0.00858  0.00745 -0.0131 Sawyer_West      5.25   125 -93.7
    ## # ℹ 18 more rows
    ## # ℹ 1 more variable: lat <dbl>
…
