Entity Embeddings of Categorical Variables using TensorFlow • embedmit
…
The embeddings are obtained using the tidy method:

hood_coef <-
  tidy(tf_embed, number = 4) |>
  dplyr::select(-terms, -id) |>
  dplyr::rename(Neighborhood = level) |>
  # Make names smaller
  rename_at(
    vars(contains("emb")),
    funs(gsub("Neighborhood_", "", ., fixed = TRUE))
  )
hood_coef

## # A tibble: 30 × 6
##     embed_1  embed_2  embed_3  embed_4  embed_5 Neighborhood      
##       <dbl>    <dbl>    <dbl>    <dbl>    <dbl> <chr>             
##  1  0.0130  -0.00804  0.0379   0.0353   0.0197  ..new             
##  2 -0.0255  -0.00635  0.0426  -0.0244   0.0354  North_Ames        
##  3 -0.0500  -0.0384   0.0449  -0.0384  -0.0381  College_Creek     
##  4 -0.0285   0.00649 -0.00802 -0.0400   0.109   Old_Town          
##  5 -0.0400   0.0505  -0.00698  0.0154   0.0509  Edwards           
##  6 -0.0541  -0.0952   0.0119   0.00193 -0.0747  Somerset          
##  7 -0.0299  -0.144    0.0525  -0.0459  -0.105   Northridge_Heights
##  8 -0.0144  -0.0256   0.00926  0.0311  -0.0164  Gilbert           
##  9 -0.00290  0.0310   0.0349  -0.0693   0.0181  Sawyer            
## 10  0.00779 -0.0243   0.0362   0.0306  -0.00105 Northwest_Ames    
## # ℹ 20 more rows

hood_coef <-
  hood_coef |>
  inner_join(means, by = "Neighborhood")
hood_coef

## # A tibble: 28 × 10
##     embed_1  embed_2  embed_3  embed_4  embed_5 Neighborhood    mean     n   lon
##       <dbl>    <dbl>    <dbl>    <dbl>    <dbl> <chr>          <dbl> <int> <dbl>
##  1 -0.0255  -0.00635  0.0426  -0.0244   0.0354  North_Ames      5.15   443 -93.6
##  2 -0.0500  -0.0384   0.0449  -0.0384  -0.0381  College_Creek   5.29   267 -93.7
##  3 -0.0285   0.00649 -0.00802 -0.0400   0.109   Old_Town        5.07   239 -93.6
##  4 -0.0400   0.0505  -0.00698  0.0154   0.0509  Edwards         5.09   194 -93.7
##  5 -0.0541  -0.0952   0.0119   0.00193 -0.0747  Somerset        5.35   182 -93.6
##  6 -0.0299  -0.144    0.0525  -0.0459  -0.105   Northridge_He…  5.49   166 -93.7
##  7 -0.0144  -0.0256   0.00926  0.0311  -0.0164  Gilbert         5.27   165 -93.6
##  8 -0.00290  0.0310   0.0349  -0.0693   0.0181  Sawyer          5.13   151 -93.7
##  9  0.00779 -0.0243   0.0362   0.0306  -0.00105 Northwest_Ames  5.27   131 -93.6
## 10 -0.0480  -0.0245   0.0263   0.0335  -0.00334 Sawyer_West     5.25   125 -93.7
## # ℹ 18 more rows
## # ℹ 1 more variable: lat <dbl>
…
