…
ames_glm
```

We can examine the learned encodings by preparing the recipe and using
[`tidy()`](https://generics.r-lib.org/reference/tidy.html):

Code

``` r
glm_estimates <-
  prep(ames_glm) %>%
  tidy(number = 2)

glm_estimates
#> # A tibble: 29 × 4
#>    level                value terms        id               
#>    <chr>                <dbl> <chr>        <chr>            
#>  1 North_Ames         144416. Neighborhood lencode_glm_yj20u
#>  2 College_Creek      202763. Neighborhood lencode_glm_yj20u
#>  3 Old_Town           124999. Neighborhood lencode_glm_yj20u
#>  4 Edwards            130460. Neighborhood lencode_glm_yj20u
#>  5 Somerset           232310. Neighborhood lencode_glm_yj20u
#>  6 Northridge_Heights 321119. Neighborhood lencode_glm_yj20u
#>  7 Gilbert            191159. Neighborhood lencode_glm_yj20u
#>  8 Sawyer             137208. Neighborhood lencode_glm_yj20u
#>  9 Northwest_Ames     188726. Neighborhood lencode_glm_yj20u
#> 10 Sawyer_West        182651. Neighborhood lencode_glm_yj20u
#> # ℹ 19 more rows
```
…
ames_mixed
```

Code

``` r
mixed_estimates <-
  prep(ames_mixed) %>%
  tidy(number = 2)

mixed_estimates
#> # A tibble: 29 × 4
#>    level                value terms        id                 
#>    <chr>                <dbl> <chr>        <chr>              
#>  1 North_Ames         144488. Neighborhood lencode_mixed_AmBz1
#>  2 College_Creek      202724. Neighborhood lencode_mixed_AmBz1
#>  3 Old_Town           125183. Neighborhood lencode_mixed_AmBz1
#>  4 Edwards            130698. Neighborhood lencode_mixed_AmBz1
#>  5 Somerset           232135. Neighborhood lencode_mixed_AmBz1
#>  6 Northridge_Heights 320533. Neighborhood lencode_mixed_AmBz1
#>  7 Gilbert            191145. Neighborhood lencode_mixed_AmBz1
#>  8 Sawyer             137433. Neighborhood lencode_mixed_AmBz1
#>  9 Northwest_Ames     188722. Neighborhood lencode_mixed_AmBz1
#> 10 Sawyer_West        182683. Neighborhood lencode_mixed_AmBz1
#> # ℹ 19 more rows
```
…
